{
  "project_info": {
    "project_number": "36116499597",
    "firebase_url": "https://starry-summer-746.firebaseio.com",
    "project_id": "starry-summer-746"
  },
  "client": [
    {
      "client_info": {
        "mobilesdk_app_id": "1:36116499597:android:14163978bf03ff41",
        "android_client_info": {
          "package_name": "com.betadan.uvle"
        }
      },
      "oauth_client": [
        {
          "client_id": "36116499597-mc079dcgsvu8hhtrukk6f31dsvaf55lf.apps.googleusercontent.com",
          "client_type": 3
        }
      ],
      "api_key": [
        {
          "current_key": "AIzaSyCe1pgA1ha2urzmeOod3iRyoHgYMXduiWc"
        }
      ],
      "services": {
        "analytics_service": {
          "status": 1
        },
        "appinvite_service": {
          "status": 1,
          "other_platform_oauth_client": []
        },
        "ads_service": {
          "status": 2
        }
      }
    }
  ],
  "configuration_version": "1"
}