{
  "prepare_queue": {
    "installed": [],
    "uninstalled": []
  },
  "config_munge": {
    "files": {}
  },
  "installed_plugins": {
    "cordova-plugin-whitelist": {
      "PACKAGE_NAME": "com.betadan.uvle"
    },
    "com-darryncampbell-cordova-plugin-intent": {
      "PACKAGE_NAME": "com.betadan.uvle"
    },
    "cordova-clipboard": {
      "PACKAGE_NAME": "com.betadan.uvle"
    },
    "cordova-plugin-badge": {
      "PACKAGE_NAME": "com.betadan.uvle"
    },
    "cordova-plugin-camera": {
      "PACKAGE_NAME": "com.betadan.uvle"
    },
    "cordova-plugin-customurlscheme": {
      "URL_SCHEME": "uvlemobile",
      "ANDROID_SCHEME": " ",
      "ANDROID_HOST": " ",
      "ANDROID_PATHPREFIX": "/",
      "PACKAGE_NAME": "com.betadan.uvle"
    },
    "cordova-plugin-device": {
      "PACKAGE_NAME": "com.betadan.uvle"
    },
    "cordova-plugin-file": {
      "PACKAGE_NAME": "com.betadan.uvle"
    },
    "cordova-plugin-file-opener2": {
      "PACKAGE_NAME": "com.betadan.uvle"
    },
    "cordova-plugin-file-transfer": {
      "PACKAGE_NAME": "com.betadan.uvle"
    },
    "cordova-plugin-globalization": {
      "PACKAGE_NAME": "com.betadan.uvle"
    },
    "cordova-plugin-inappbrowser": {
      "PACKAGE_NAME": "com.betadan.uvle"
    },
    "cordova-plugin-local-notifications-mm": {
      "PACKAGE_NAME": "com.betadan.uvle"
    },
    "cordova-plugin-media-capture": {
      "PACKAGE_NAME": "com.betadan.uvle"
    },
    "cordova-plugin-network-information": {
      "PACKAGE_NAME": "com.betadan.uvle"
    },
    "cordova-plugin-splashscreen": {
      "PACKAGE_NAME": "com.betadan.uvle"
    },
    "cordova-plugin-statusbar": {
      "PACKAGE_NAME": "com.betadan.uvle"
    },
    "cordova-plugin-zip": {
      "PACKAGE_NAME": "com.betadan.uvle"
    },
    "cordova-sqlite-evcore-extbuild-free": {
      "PACKAGE_NAME": "com.betadan.uvle"
    },
    "ionic-plugin-keyboard": {
      "PACKAGE_NAME": "com.betadan.uvle"
    },
    "phonegap-plugin-push": {
      "FCM_VERSION": "11.6.2",
      "PACKAGE_NAME": "com.betadan.uvle"
    }
  },
  "dependent_plugins": {
    "cordova-plugin-app-event": {
      "PACKAGE_NAME": "com.betadan.uvle"
    }
  }
}